<?xml version="1.0" encoding="utf-8"?>
<!-- Generator: Adobe Illustrator 16.0.3, SVG Export Plug-In . SVG Version: 6.00 Build 0)  -->
<!DOCTYPE svg PUBLIC "-//W3C//DTD SVG 1.1//EN" "http://www.w3.org/Graphics/SVG/1.1/DTD/svg11.dtd">
<svg version="1.1" id="Capa_1" xmlns="http://www.w3.org/2000/svg" xmlns:xlink="http://www.w3.org/1999/xlink" x="0px" y="0px"
	 width="203.98px" height="268.297px" viewBox="0 0 203.98 268.297" enable-background="new 0 0 203.98 268.297"
	 xml:space="preserve">
<g>
	<defs>
		<rect id="SVGID_1_" x="-52.086" y="-55.491" width="317.424" height="369.697"/>
	</defs>
	<clipPath id="SVGID_2_">
		<use xlink:href="#SVGID_1_"  overflow="visible"/>
	</clipPath>
	<path clip-path="url(#SVGID_2_)" fill="#B50C00" d="M203.986,0c0,0-0.008,188.706-0.008,188.783
		c-0.058,6.164-1.653,14.931-8.555,21.56c-11.771,11.349-82.278,57.954-93.426,57.954c-0.066,0-0.199-0.01-0.248-0.01
		c-0.07,0-0.17,0.01-0.223,0.01c-11.132,0-81.595-46.619-93.368-57.958c-6.901-6.631-8.064-15.4-8.134-21.556L0,0H203.986z"/>
	<polygon clip-path="url(#SVGID_2_)" fill-rule="evenodd" clip-rule="evenodd" fill="#FFFFFF" points="94.777,132.813 
		87.74,138.216 88.567,143.145 94.192,143.723 95.142,146.417 99.475,147.596 101.112,146.417 102.995,148.65 109.086,146.544 
		110.036,140.199 106.976,137.624 106.976,132.586 104.164,131.405 100.179,133.875 	"/>
	<path clip-path="url(#SVGID_2_)" fill-rule="evenodd" clip-rule="evenodd" fill="#FFFFFF" d="M76.607,131.882l6.799,1.292
		l0.471,2.106c-0.471,1.167-0.827,1.646-1.761,2.23c-1.295,0.591-4.217-1.176-4.694-2.23
		C76.839,134.225,76.483,133.287,76.607,131.882"/>
	<path clip-path="url(#SVGID_2_)" fill-rule="evenodd" clip-rule="evenodd" fill="#FFFFFF" d="M131.606,189.117v-38.473h40.226v7.86
		H145.21v6.795h24.282v7.749H145.21v8.201h27.569v7.867H131.606z M75.314,189.117v-38.473h14.66l9.969,12.663
		c1.53,1.992,3.052,4.111,4.578,6.105c1.406,1.993,2.811,3.986,4.101,5.97c-0.24-2.925-0.355-5.616-0.355-8.201
		c-0.119-2.581-0.231-4.805-0.231-6.693v-9.844h13.137v38.473h-14.668l-10.316-13.019c-1.171-1.529-2.46-3.286-3.99-5.155
		c-1.402-1.884-2.929-3.996-4.571-6.23c0.353,2.582,0.468,4.928,0.592,7.048c0.112,2.228,0.223,4.097,0.223,5.743v11.613H75.314z
		 M28.516,174.107h12.67v2.578c0,1.985,0.347,3.398,1.286,4.226c0.814,0.93,2.225,1.28,4.106,1.28c2.002,0,3.408-0.475,4.222-1.404
		c0.828-1.057,1.179-3.05,1.179-5.868v-24.274h13.253v23.925c0,5.629-1.409,9.619-4.346,11.961
		c-2.927,2.347-7.742,3.526-14.308,3.526c-6.098,0-10.668-1.18-13.608-3.526c-3.048-2.342-4.454-5.979-4.454-10.784v-0.827V174.107z
		"/>
	<path clip-path="url(#SVGID_2_)" fill-rule="evenodd" clip-rule="evenodd" fill="#FFFFFF" d="M101.349,43.326
		c14.08,0,25.567,11.387,25.567,25.57c0,14.08-11.487,25.57-25.567,25.57c-13.956,0-25.443-11.49-25.443-25.57
		C75.906,54.713,87.393,43.326,101.349,43.326"/>
	<polygon clip-path="url(#SVGID_2_)" fill-rule="evenodd" clip-rule="evenodd" fill="#FFFFFF" points="123.277,122.731 
		166.681,84.38 181.104,84.38 129.26,126.605 	"/>
	<polygon clip-path="url(#SVGID_2_)" fill-rule="evenodd" clip-rule="evenodd" fill="#FFFFFF" points="143.572,84.38 
		124.46,103.268 101.699,99.744 92.318,105.839 87.627,118.74 94.55,118.273 100.062,111.002 103.817,110.539 119.767,120.035 
		156.822,84.38 	"/>
	<polygon clip-path="url(#SVGID_2_)" fill-rule="evenodd" clip-rule="evenodd" fill="#FFFFFF" points="89.386,107.256 
		85.404,118.043 47.166,84.381 63.583,84.381 	"/>
	<polygon clip-path="url(#SVGID_2_)" fill-rule="evenodd" clip-rule="evenodd" fill="#FFFFFF" points="102.163,112.65 
		94.55,121.675 84.228,122.501 36.968,84.38 23.943,84.38 76.483,129.879 84.581,131.18 85.044,134.933 86.805,136.223 
		94.083,130.706 100.062,131.997 103.817,129.879 108.146,131.519 108.146,136.571 111.558,139.618 110.73,146.077 114.953,144.433 
		115.188,143.017 117.773,142.204 119.179,139.271 123.045,137.04 123.757,134.11 126.688,132.118 127.387,129.3 	"/>
	<path clip-path="url(#SVGID_2_)" fill-rule="evenodd" clip-rule="evenodd" fill="#FFFFFF" d="M83.29,143.483H22.297l19.236-36.941
		l29.794,25.803l0.112,0.468v0.475l0.124,0.475v0.463l0.115,0.467l0.116,0.354l0.116,0.35l0.121,0.476l0.11,0.352l0.241,0.463
		l0.115,0.476l0.232,0.577l0.471,0.707l0.587,0.709l0.464,0.581l0.599,0.464l0.463,0.475l0.592,0.349l0.578,0.354l0.587,0.352
		l0.588,0.236l0.702,0.239l0.704,0.236l0.818,0.227l0.939,0.118h1.062l1.167-0.118h0.124L83.29,143.483z M162.329,106.542
		l19.361,36.941h-58.76l0.233-0.578l4.455-2.581l0.711-3.163l3.044-2.004l0.938-3.978L162.329,106.542z"/>
</g>
</svg>
